<?xml version="1.0" encoding="UTF-8"?>
<!-- Created with Inkscape (http://www.inkscape.org/) -->
<svg version="1.1" viewBox="0 0 17.861 20.515" xmlns="http://www.w3.org/2000/svg" xmlns:cc="http://creativecommons.org/ns#" xmlns:dc="http://purl.org/dc/elements/1.1/" xmlns:rdf="http://www.w3.org/1999/02/22-rdf-syntax-ns#">
 <metadata>
  <rdf:RDF>
   <cc:Work rdf:about="">
    <dc:format>image/svg+xml</dc:format>
    <dc:type rdf:resource="http://purl.org/dc/dcmitype/StillImage"/>
    <dc:title/>
   </cc:Work>
  </rdf:RDF>
 </metadata>
 <g transform="translate(-77.248 104.84)" fill="#808080">
  <path d="m79.689-104.84c1.0264 0.8203 0.30724 2.9921 0.30724 2.9921l0.19559-0.3805c0.24449-0.5412 0.88331-0.7857 1.4245-0.5412 0.4399 0.1951 0.63192 0.7051 0.4399 1.1381-0.15708 0.3491-0.59004 0.5341-0.93919 0.3805 0 0-0.43991-0.1748-0.31771-0.5655 0 0 0.0524-0.3876 0.54467-0.2026l8e-3 -0.081s-0.67383-0.7472-1.1172 0.5133c0 0-0.0628 0.2179 0 0.3212 0.0593 0.1014 0.26883 0.114 0.12921 0.2281-0.14315 0.1114-0.15708 0.1545-0.15708 0.1545s-0.0978 0.6076 0.51325 0.6529c-0.0699-0.433 0.31421-0.4084 0.31421-0.4084 0.32121-0.025 0.33867 0.2724 0.33867 0.2724 0.0314 0.5829-0.63195 0.5166-0.63195 0.5166-0.61797-0.053-0.79952-0.9357-0.79952-0.9357s0.40848 1.9167-0.24779 1.9098h-0.0127c-0.65291 0-0.24449-1.9098-0.24449-1.9098s-0.18141 0.8832-0.79952 0.9357c0 0-0.66684 0.066-0.63193-0.5166 0 0 0.0152-0.2899 0.33867-0.2724 0 0 0.38056-0.025 0.31071 0.4084 0.6145-0.046 0.51325-0.6529 0.51325-0.6529s-0.0152-0.041-0.15353-0.1545c-0.14315-0.1115 0.0664-0.1267 0.12921-0.2281 0.0593-0.1038-3e-3 -0.3212-3e-3 -0.3212-0.43991-1.2605-1.1137-0.5133-1.1137-0.5133l8e-3 0.081c0.49227-0.185 0.54117 0.2026 0.54117 0.2026 0.12566 0.391-0.31424 0.5655-0.31424 0.5655-0.34913 0.1546-0.78207-0.03-0.93568-0.3805-0.19913-0.433 0-0.9428 0.43292-1.1381 0.54466-0.2457 1.1836 0 1.428 0.5412l0.19204 0.3805s-0.71224-2.1718 0.31075-2.9921z"/>
  <path d="m86.179-104.84c1.0265 0.8203 0.30725 2.9921 0.30725 2.9921l0.19559-0.3805c0.24449-0.5412 0.88331-0.7857 1.4245-0.5412 0.43641 0.1951 0.63192 0.7051 0.43641 1.1381-0.15354 0.3491-0.58655 0.5341-0.93568 0.3805 0 0-0.43993-0.1748-0.31771-0.5655 0 0 0.0525-0.3876 0.54814-0.2026l3e-3 -0.081s-0.67382-0.7472-1.1172 0.5133c0 0-0.0593 0.2179 0 0.3212 0.0593 0.1014 0.2723 0.114 0.12921 0.2281-0.1396 0.1114-0.15708 0.1545-0.15708 0.1545s-0.10135 0.6076 0.51322 0.6529c-0.0699-0.433 0.31074-0.4084 0.31074-0.4084 0.32818-0.025 0.34216 0.2724 0.34216 0.2724 0.035 0.5829-0.63195 0.5166-0.63195 0.5166-0.61446-0.053-0.79951-0.9357-0.79951-0.9357s0.40499 1.9167-0.24779 1.9098h-0.0101c-0.65288 0-0.25133-1.9098-0.25133-1.9098s-0.17811 0.8832-0.79603 0.9357c0 0-0.66686 0.066-0.63192-0.5166 0 0 0.0127-0.2899 0.33866-0.2724 0 0 0.38404-0.025 0.31422 0.4084 0.61099-0.046 0.50973-0.6529 0.50973-0.6529s-0.0101-0.041-0.15354-0.1545c-0.14315-0.1115 0.0664-0.1267 0.12921-0.2281 0.0628-0.1038-3e-3 -0.3212-3e-3 -0.3212-0.4399-1.2605-1.1137-0.5133-1.1137-0.5133l3e-3 0.081c0.49577-0.185 0.54464 0.2026 0.54464 0.2026 0.12567 0.391-0.31421 0.5655-0.31421 0.5655-0.34913 0.1546-0.78206-0.03-0.93567-0.3805-0.1956-0.433 0-0.9428 0.43291-1.1381 0.54466-0.2457 1.1836 0 1.428 0.5412l0.19559 0.3805s-0.71923-2.1718 0.30375-2.9921z"/>
  <path d="m92.67-104.84c1.023 0.8203 0.30725 2.9921 0.30725 2.9921l0.19204-0.3805c0.24779-0.5412 0.88333-0.7857 1.428-0.5412 0.4364 0.1951 0.63192 0.7051 0.4364 1.1381-0.15353 0.3491-0.59001 0.5341-0.93567 0.3805 0 0-0.4399-0.1748-0.31771-0.5655 0 0 0.0525-0.3876 0.54464-0.2026l8e-3 -0.081s-0.67385-0.7472-1.1172 0.5133c0 0-0.0628 0.2179-3e-3 0.3212 0.0628 0.1014 0.27583 0.114 0.13275 0.2281-0.14314 0.1114-0.15708 0.1545-0.15708 0.1545s-0.0978 0.6076 0.51323 0.6529c-0.0664-0.433 0.31421-0.4084 0.31421-0.4084 0.32121-0.025 0.33867 0.2724 0.33867 0.2724 0.035 0.5829-0.63193 0.5166-0.63193 0.5166-0.61796-0.053-0.79952-0.9357-0.79952-0.9357s0.40499 1.9167-0.24778 1.9098h-0.0152c-0.65288 0-0.24779-1.9098-0.24779-1.9098s-0.1814 0.8832-0.79602 0.9357c0 0-0.66684 0.066-0.63192-0.5166 0 0 0.0127-0.2899 0.33866-0.2724 0 0 0.38054-0.025 0.31421 0.4084 0.611-0.046 0.51323-0.6529 0.51323-0.6529s-0.0152-0.041-0.15708-0.1545c-0.14315-0.1115 0.0699-0.1267 0.12921-0.2281 0.0628-0.1038-3e-3 -0.3212-3e-3 -0.3212-0.43993-1.2605-1.1138-0.5133-1.1138-0.5133l8e-3 0.081c0.48878-0.185 0.54114 0.2026 0.54114 0.2026 0.12567 0.391-0.31421 0.5655-0.31421 0.5655-0.34913 0.1546-0.78206-0.03-0.93567-0.3805-0.19559-0.433 0-0.9428 0.43291-1.1381 0.54117-0.2457 1.1836 0 1.4245 0.5412l0.1956 0.3805s-0.71222-2.1718 0.30724-2.9921z"/>
  <path d="m92.027-89.235-3.4669-2.4439 4.8774-3.6451s0.62146 2.8419-1.4105 6.089m-5.9004 4.9088c-1.6828-0.8622-2.9712-1.7981-3.9697-2.7198l3.9697-2.8594 3.9627 2.8594c-0.99853 0.9217-2.2868 1.8576-3.9627 2.7198m-7.3214-10.998 4.8774 3.6451-3.4634 2.4439c-2.032-3.2471-1.414-6.089-1.414-6.089m7.5972-1.4279h4.2315l-4.5074 3.3274-4.5143-3.3274z"/>
 </g>
</svg>
